projectPWM_solution/code/project_1/project_1.sim/sim_1/behav/xsim/sync_fifo_tb.vcd
$date
   Fri Aug  9 10:29:38 2024
$end

$version
  2023.2
  $dumpfile ("sync_fifo_tb.vcd") 
$end

$timescale
  1ps
$end

$scope module sync_fifo_tb $end
$var reg 1 ! r_clk $end
$var reg 1 " r_rst $end
$var reg 8 # r_fifo [7:0] $end
$var reg 1 $ r_we $end
$var reg 1 % r_re $end
$var wire 8 & w_fifo [7:0] $end
$var wire 1 ' w_fifo_full $end
$var wire 1 ( w_fifo_empty $end
$var integer 32 ) i [31:0] $end
$scope module dut $end
$var wire 1 * i_clk $end
$var wire 1 + i_rst $end
$var wire 8 , i_fifo [7:0] $end
$var wire 1 - i_we $end
$var wire 1 . i_re $end
$var reg 8 / o_fifo [7:0] $end
$var wire 1 ' o_fifo_full $end
$var wire 1 ( o_fifo_empty $end
$var reg 3 0 r_write_pointer [2:0] $end
$var reg 3 1 r_read_pointer [2:0] $end
$var reg 4 2 r_count [3:0] $end
$upscope $end
$upscope $end
$enddefinitions $end

#0
$dumpvars
0!
1"
b0 #
0$
0%
bx &
x'
x(
bx )
0*
1+
b0 ,
0-
0.
bx /
bx 0
bx 1
bx 2
$end

#10000
1!
0'
1(
1*
b0 0
b0 1
b0 2

#20000
0!
1$
b0 )
0*
1-

#30000
1!
1*

#40000
0!
b1 #
b1 )
0*
b1 ,

#50000
1!
1*

#60000
0!
b10 #
b10 )
0*
b10 ,

#70000
1!
1*

#80000
0!
b11 #
b11 )
0*
b11 ,

#90000
1!
1*

#100000
0!
b100 #
b100 )
0*
b100 ,

#110000
1!
1*

#120000
0!
b101 #
b101 )
0*
b101 ,

#130000
1!
1*

#140000
0!
b110 #
b110 )
0*
b110 ,

#150000
1!
1*

#160000
0!
b111 #
b111 )
0*
b111 ,

#170000
1!
1*

#180000
0!
b1000 )
0*

#190000
1!
1*

#200000
0!
b0 #
0$
1%
b0 )
0*
b0 ,
0-
1.

#210000
1!
1*

#220000
0!
b1 #
b1 )
0*
b1 ,

#230000
1!
1*

#240000
0!
b10 #
b10 )
0*
b10 ,

#250000
1!
1*

#260000
0!
b11 #
b11 )
0*
b11 ,

#270000
1!
1*

#280000
0!
b100 #
b100 )
0*
b100 ,

#290000
1!
1*

#300000
0!
b101 #
b101 )
0*
b101 ,

#310000
1!
1*

#320000
0!
b110 #
b110 )
0*
b110 ,

#330000
1!
1*

#340000
0!
b111 #
b111 )
0*
b111 ,

#350000
1!
1*

#360000
0!
b1000 )
0*

#370000
1!
1*

#380000
0!
0%
0*
0.

#390000
1!
0"
b0 #
1*
0+
b0 ,

#400000
0!
0*

#410000
1!
1$
b0 )
1*
1-

#420000
0!
0*

#430000
1!
b1 #
0(
b1 )
1*
b1 ,
b1 0
b1 2

#440000
0!
0*

#450000
1!
b10 #
b10 )
1*
b10 ,
b10 0
b10 2

#460000
0!
0*

#470000
1!
b11 #
b11 )
1*
b11 ,
b11 0
b11 2

#480000
0!
0*

#490000
1!
b100 #
b100 )
1*
b100 ,
b100 0
b100 2

#500000
0!
0*

#510000
1!
b101 #
b101 )
1*
b101 ,
b101 0
b101 2

#520000
0!
0*

#530000
1!
b110 #
b110 )
1*
b110 ,
b110 0
b110 2

#540000
0!
0*

#550000
1!
b111 #
b111 )
1*
b111 ,
b111 0
b111 2

#560000
0!
0*

#570000
1!
1'
b1000 )
1*
b0 0
b1000 2

#580000
0!
0*

#590000
1!
b0 #
0$
1%
0'
b0 )
1*
b0 ,
0-
1.
b1 0
b1001 2

#600000
0!
0*

#610000
1!
b1 #
b111 &
1'
b1 )
1*
b1 ,
b111 /
b1 1
b1000 2

#620000
0!
0*

#630000
1!
b10 #
b1 &
0'
b10 )
1*
b10 ,
b1 /
b10 1
b111 2

#640000
0!
0*

#650000
1!
b11 #
b10 &
b11 )
1*
b11 ,
b10 /
b11 1
b110 2

#660000
0!
0*

#670000
1!
b100 #
b11 &
b100 )
1*
b100 ,
b11 /
b100 1
b101 2

#680000
0!
0*

#690000
1!
b101 #
b100 &
b101 )
1*
b101 ,
b100 /
b101 1
b100 2

#700000
0!
0*

#710000
1!
b110 #
b101 &
b110 )
1*
b110 ,
b101 /
b110 1
b11 2

#720000
0!
0*

#730000
1!
b111 #
b110 &
b111 )
1*
b111 ,
b110 /
b111 1
b10 2

#740000
0!
0*

#750000
1!
b111 &
b1000 )
1*
b111 /
b0 1
b1 2
